A Simple Workflow
…
Distributions in Climate (July max temperature) from Rasters

modern <- allSamp %>% filter(age < 50)

spatial <- sf::st_as_sf(modern, 
                        coords = c("long", "lat"),
                        crs = "+proj=longlat +datum=WGS84")
spatial

## Simple feature collection with 1553 features and 10 fields
## Geometry type: POINT
## Dimension:     XY
## Bounding box:  xmin: 13.21399 ymin: 48.77639 xmax: 18.63083 ymax: 50.76618
## CRS:           +proj=longlat +datum=WGS84
## # A tibble: 1,553 × 11
## # Groups:   siteid, sitename, replacement, sampleid, units, age, agetype,
## #   depth, datasetid [1,553]
##    siteid sitename  replacement     sampleid units   age agetype depth datasetid
##  *  <int> <chr>     <chr>              <int> <chr> <int> <chr>   <dbl>     <int>
##  1   1399 Kameničky Abies             342283 NISP     48 Calibr…     0      1435
##  2   1399 Kameničky Achillea          342283 NISP     48 Calibr…     0      1435
##  3   1399 Kameničky Alnus             342283 NISP     48 Calibr…     0      1435
##  4   1399 Kameničky Amaranthaceae     342283 NISP     48 Calibr…     0      1435
##  5   1399 Kameničky Apiaceae          342283 NISP     48 Calibr…     0      1435
##  6   1399 Kameničky Artemisia         342283 NISP     48 Calibr…     0      1435
##  7   1399 Kameničky Barbarea-type     342283 NISP     48 Calibr…     0      1435
##  8   1399 Kameničky Betula            342283 NISP     48 Calibr…     0      1435
##  9   1399 Kameničky Bistorta offic…   342283 NISP     48 Calibr…     0      1435
## 10   1399 Kameničky Cardamine prat…   342283 NISP     48 Calibr…     0      1435
## # … with 1,543 more rows, and 2 more variables: value <int>,
## #   geometry <POINT [°]>
…
Top 10

topten <- allSamp %>% 
  dplyr::group_by(replacement) %>% 
  dplyr::summarise(n = dplyr::n()) %>% 
  dplyr::arrange(desc(n))
topten

## # A tibble: 1,078 × 2
##    replacement     n
##    <chr>       <int>
##  1 Poaceae      3892
##  2 Betula       3837
##  3 Cyperaceae   3751
##  4 Alnus        3625
##  5 Pinus        3518
##  6 Artemisia    3419
##  7 Quercus      3128
##  8 Salix        2878
##  9 Ulmus        2862
## 10 Abies        2658
## # … with 1,068 more rows
…
