…
#### 3.4.2. Understanding Taxonomies in Neotoma {-}

Taxonomies in Neotoma are not as straightforward as we might expect. Taxonomic identification in paleoecology can be complex, impacted by the morphology of the object we are trying to identify, the condition of the palynomorph, the expertise of the analyst, and may other conditions. You can read more about concepts of taxonomy within Neotoma in the Neotoma Manual's [section on Taxonomic concepts](https://open.neotomadb.org/manual/database-design-concepts.html#taxonomy-and-synonymy).

We use the unique identifiers (*e.g.*, `taxonid`, `siteid`, `analysisunitid`) throughout the package, since they help us to link between records. The `taxonid` values returned by the `taxa()` call can be linked to the `taxonid` column in the `samples()` table.  This allows us to build taxon harmonization tables if we choose to. You may also note that the `taxonname` is in the field `variablename`.  Individual sample counts are reported in Neotoma as [`variables`](https://open.neotomadb.org/manual/taxonomy-related-tables-1.html#Variables). A "variable" may be either a species, something like laboratory measurements, or a non-organic proxy, like charcoal or XRF measurements, and includes the units of measurement and the value.

#### 3.4.3. Simple Harmonization {.tabset}

Lets say we want all samples from which *Quercus* taxa have been reported to be grouped together into one pseudo-taxon called *Quercus-undiff*. **NOTE**, this is not an ecologically useful grouping, but used for illustration.

There are several ways of grouping taxa, either directly by exporting the file and editing each individual cell, or by creating an external "harmonization" table (which we did in the prior `neotoma` package).  First, lets look for how many different ways *Quercus* appears in these records:


```
## # A tibble: 24 × 11
## # Groups:   units, context, element, taxonid, symmetry, taxongroup,
## #   elementtype, variablename, ecologicalgroup [24]
##    units context element taxonid symme…¹ taxon…² eleme…³ varia…⁴ ecolo…⁵ samples
##    <chr> <chr>   <chr>     <int> <lgl>   <chr>   <chr>   <chr>   <chr>     <int>
##  1 NISP  <NA>    pollen      251 NA      Vascul… pollen  Quercus TRSH        336
##  2 NISP  <NA>    pollen     2342 NA      Vascul… pollen  Quercu… TRSH         31
##  3 NISP  <NA>    pollen     2532 NA      Vascul… pollen  Quercu… TRSH         24
##  4 NISP  <NA>    pollen     2929 NA      Vascul… pollen  Quercu… TRSH        890
##  5 NISP  <NA>    pollen     2943 NA      Vascul… pollen  Quercu… TRSH        367
##  6 NISP  <NA>    pollen     3592 NA      Vascul… pollen  Quercu… TRSH        288
##  7 NISP  <NA>    pollen     3593 NA      Vascul… pollen  Quercu… TRSH        236
##  8 NISP  <NA>    pollen     4713 NA      Vascul… pollen  Quercu… TRSH        677
##  9 NISP  <NA>    pollen     4714 NA      Vascul… pollen  Quercu… TRSH        804
## 10 NISP  <NA>    pollen     4716 NA      Vascul… pollen  Quercu… TRSH        359
## # … with 14 more rows, 1 more variable: sites <int>, and abbreviated variable
## #   names ¹​symmetry, ²​taxongroup, ³​elementtype, ⁴​variablename, ⁵​ecologicalgroup
```
…
